{
    "count": 1118,
    "next": "https://pokeapi.co/api/v2/pokemon?offset=50&limit=50",
    "previous": null,
    "results": [
        {
            "name": "bulbasaur",
            "url": "https://pokeapi.co/api/v2/pokemon/1/"
        }
         
    ]
}